<?xml version="1.0" standalone="no"?>
<!DOCTYPE svg PUBLIC "-//W3C//DTD SVG 1.1//EN" "http://www.w3.org/Graphics/SVG/1.1/DTD/svg11.dtd" >
<svg xmlns="http://www.w3.org/2000/svg">
<metadata>Generated by IcoMoon</metadata>
<defs>
<font id="icomoon" horiz-adv-x="1024">
<font-face units-per-em="1024" ascent="960" descent="-64" />
<missing-glyph horiz-adv-x="1024" />
<glyph unicode="&#x20;" horiz-adv-x="512" d="" />
<glyph unicode="&#xe900;" glyph-name="search" d="M665.049 461.118c-17.301-40.306-40.876-75.289-70.535-104.948s-64.452-53.234-104.377-70.535c-39.926-17.301-82.703-26.047-128.523-26.047s-88.597 8.746-128.523 26.047c-39.926 17.301-74.718 40.876-104.377 70.535s-53.234 64.642-70.535 104.948c-17.301 40.306-26.047 82.893-26.047 128.143 0 45.82 8.746 88.597 26.047 128.523s40.876 74.718 70.535 104.377 64.452 53.234 104.377 70.535c39.926 17.301 82.703 26.047 128.523 26.047s88.597-8.746 128.523-26.047c39.926-17.301 74.718-40.876 104.377-70.535s53.234-64.452 70.535-104.377c17.301-39.926 26.047-82.703 26.047-128.523 0-45.249-8.746-88.027-26.047-128.143zM361.423 336.588c34.602 0 67.303 6.654 97.913 19.963s57.417 31.37 80.232 54.375c22.815 22.815 41.066 49.622 54.375 80.232s19.963 63.311 19.963 97.913c0 35.363-6.654 68.254-19.963 98.864s-31.37 57.227-54.375 79.851c-22.815 22.625-49.622 40.496-80.232 53.805s-63.311 19.963-97.913 19.963c-34.602 0-67.303-6.654-97.913-19.963s-57.417-31.18-80.232-53.805c-22.815-22.625-41.066-49.242-54.375-79.851s-19.963-63.501-19.963-98.864c0-34.602 6.654-67.303 19.963-97.913s31.37-57.417 54.375-80.232c22.815-22.815 49.622-41.066 80.232-54.375s63.311-19.963 97.913-19.963zM961.26 124.982c14.259-14.259 21.294-31.56 21.294-51.903s-7.035-37.454-21.294-51.143l-21.294-21.294c-14.259-14.259-31.37-21.294-51.523-21.294s-37.264 7.035-51.523 21.294l-259.137 259.898c24.716 16.16 47.341 34.792 67.684 56.086s38.025 44.679 52.854 70.155l262.939-261.799z" />
<glyph unicode="&#xe901;" glyph-name="star" d="M952.894 544.582c0-3.802-1.331-7.795-3.802-11.978-2.472-4.373-5.894-8.936-10.267-13.879l-194.115-189.362 45.439-267.312c0-1.331 0.19-2.852 0.38-4.563 0.38-1.901 0.38-3.993 0.38-6.464 0-3.802-0.38-7.035-1.331-10.267-0.951-3.042-2.281-5.894-4.183-8.365-1.901-3.042-4.183-5.323-7.035-6.464s-6.084-1.901-9.696-1.901c-3.042 0-6.464 0.57-10.267 1.901s-7.415 2.852-11.217 4.563l-240.505 126.241-239.935-126.431c-3.802-1.901-7.415-3.422-11.217-4.563s-7.035-1.901-10.267-1.901c-3.802 0-7.035 0.57-9.696 1.901-2.852 1.331-5.133 3.422-7.035 6.464-1.901 2.472-3.232 5.323-4.183 8.365s-1.331 6.464-1.331 10.267c0 1.141 0 2.852 0 4.563s0.38 3.993 0.951 6.464l45.439 267.312-194.685 189.362c-4.373 4.943-7.605 9.506-9.696 13.879s-3.232 8.365-3.232 11.978c0 6.844 2.472 12.168 7.415 16.16s12.358 7.035 22.244 8.746l269.214 38.975 120.728 243.167c3.042 7.415 6.844 12.928 11.217 16.731s9.316 5.514 14.83 5.514 10.457-1.901 14.83-5.514c4.373-3.802 7.985-9.316 11.217-16.731l120.728-243.167 269.214-38.975c9.886-1.901 17.301-4.753 22.244-8.746 4.753-3.802 7.225-9.126 7.225-15.97z" />
</font></defs></svg>